{
  "type": "service_account",
  "project_id": "chatbot-kesehatan",
  "private_key_id": "b6131d7d0f1e14d49a7dc6c446770b969978f9cb",
  "private_key": "-----BEGIN PRIVATE KEY-----\nMIIEvgIBADANBgkqhkiG9w0BAQEFAASCBKgwggSkAgEAAoIBAQDAGq7KxkbyFEGu\nLSmildvmwgLvWPNGt3a2IYg6RzK4WtcVkz1MREmR2JwM3Fkw37U2b0feCZ2JZO27\na1a3s0/n9mTEwXH0vsw/5qwXzc28bV02LimBRAbOHJbOKOPQYk5T+eG0E1darA6D\n5mWXkp1fpxqKw5gHUQapOFJKNO92+Xycph6p47tDSpeBdKLbLCpDbsrY6T8yALnR\nAuX8MLl1BnevMvs9+RDvq+kk/UNJv2q/lL6FDQCJ6S9NqEX73uSb2osJm2OwNJJl\nr5Rr7kRj55yAr15+DqMkucWxjrE3O9A0Aeilcy81nD6J2Du+viO1s2BOyWzaY6r9\nVSnmXeYhAgMBAAECggEAKAQ25nL8mtdI4kMyodVVOCGwclLFZHT5o9Fi2v7zTA9S\nMAKamX09FQY55XzuEF39VdBC+HfoytLNKcYfi4cs7T04evrv5cNr8SC4NwIuKeLf\nMJbXmv+EamFusZW3dPRRbDFIiJYh03e1U1kGTxdhtGfvAbpiPB3vBQeALsiNnGrZ\njGoZ25iiCP7Iv5iDYvbLNqoKLOjBxty0dt/YkBvT3GSzJXOqeZPsiYPI5eUQ71Er\nR/vbMX6drg7HBMwM0bCIMfsius74kMHZyN6NuFoJuxQlOi/tCIWiVQ9wnmrxFbaz\nzgo+shKYFufNMw7wauJYLGTUFGrDXLGMHP2xFYn/1QKBgQD3mLb04+oILB/RPO7q\nO1pxz2OjOBsd74vDN8hui79oCdLOS095Ckdx9vPOiA0fKyjg4m5ifVSMP2hMVhdk\njZ80O3AMfyAjPCMePOMqPjykPQwHI/+yzh3aQLj2xeVTKQ2huSXQR45bCzQ0Kp11\no+nA5b0id52J0YlaUzjrbOM8xQKBgQDGn9BF8xCuvgXLmagxVRyjBmivLKybXxxN\nMwS+JSjPAxHg/zY4m/BmrvErICqb34D3jUW6gtdsxdjAzv6Luo3ec1JEaQYYYWIZ\n8904P3dQbLsNU9nfe1QE76cMMin4Qs/3Maeu4TzwANW6uYmW9eDU584j+gZ5yLxy\nTiAMoH3RrQKBgQDSZRkDHDEg5K3c1ZSHwgvnLj4S0nhohcgUCXDuTx5FQCO8XU6Z\nIlz3wMwIsp/D3p8MCh2W371at/7e70FNlvK0JdXfKJ+ckVueNEss+Fn7jkyMPNDp\nljDT56/FMwDeG8KTrIsvY77aKrkfox7Oeo0F97MyeMaL+FxpPtLda1flqQKBgGwq\nmBef2RPwc+N+2HOVMDUvxk6ve4hZcWYxRIHwZprlxxTKp1KIyZCB8OBVch7Uxr0J\neFGr83lO/U1y7HhXre7YypJqx2D7l5sejPiWx3lK3UrSwTHNTeIqSMSBhQ2oBO1P\nY0v/aVoiekJnzCAj4r7PRhmdjW1A/i8ZkKaPuDU5AoGBAOfSQoegKBjMhp6gtd8u\nMTtSW+WKMAJaNu8TBplv+sDq5Vc7l+urUakobi8BCSmcqSsZaTEhhlU+59Lo9B4U\nndB7QorJyxznkmH2XoDItyoTr8EecsyJRWeism+2ci8OItJCDIepI3DbEDluJmDj\nECtw7Nb2wxcT4JbWjoaFpCW0\n-----END PRIVATE KEY-----\n",
  "client_email": "firebase-adminsdk-81p16@chatbot-kesehatan.iam.gserviceaccount.com",
  "client_id": "101642587713591392319",
  "auth_uri": "https://accounts.google.com/o/oauth2/auth",
  "token_uri": "https://oauth2.googleapis.com/token",
  "auth_provider_x509_cert_url": "https://www.googleapis.com/oauth2/v1/certs",
  "client_x509_cert_url": "https://www.googleapis.com/robot/v1/metadata/x509/firebase-adminsdk-81p16%40chatbot-kesehatan.iam.gserviceaccount.com"
}
